\relax 
\citation{PredSuccZero}
\citation{SICP}
\citation{MetaII}
\citation{DragonBook}
\citation{MechanicsBook}
\@writefile{toc}{\contentsline {section}{\numberline {1}Stage 1: Grammar Loading Parsing}{3}}
\@writefile{toc}{\contentsline {section}{\numberline {2}Stage 2: Lexical Decomposition}{3}}
\@writefile{toc}{\contentsline {section}{\numberline {3}Stage 3: Transform Syntax to Exp-tree}{3}}
\citation{LISP}
\@writefile{toc}{\contentsline {section}{\numberline {4}Stage 4: Interpret Step of expression-tree}{4}}
\@writefile{toc}{\contentsline {section}{\numberline {5}Stage 5: Loop Until Debug}{4}}
\@writefile{toc}{\contentsline {section}{\numberline {6}After Thoughts and Explorations}{4}}
\@writefile{toc}{\contentsline {section}{\numberline {7}Appendix}{5}}
\citation{*}
\bibdata{mybib}
\bibcite{DragonBook}{Alfred V.\nobreakspace  {}Aho, 1988}
\bibcite{GrammarParser}{Code, a}
\bibcite{LambdaGrammar}{Code, b}
\bibcite{LambdaCalc}{Code, c}
\bibcite{ProofOfZero}{Code, d}
\bibcite{TopLoop}{Code, e}
\bibcite{PEG}{Ford, 2004}
\bibcite{SICP}{Harold\nobreakspace  {}Abelson, 1996}
\bibcite{PredSuccZero}{Horwitz, 2010}
\bibcite{MetaII}{Neighbors, 2015}
\bibcite{MechanicsBook}{Parsons, 1992}
\bibcite{MLWpro}{Paulson, 2000}
\bibcite{LISP}{Queinnec, 1994}
\bibstyle{apalike}
