\relax 
\@writefile{toc}{\contentsline {section}{\numberline {1}Problem 1.f}{1}}
\@writefile{toc}{\contentsline {section}{\numberline {2}Problem 2.c}{1}}
\@writefile{toc}{\contentsline {section}{\numberline {3}Problem 2.d}{4}}
\@writefile{toc}{\contentsline {section}{\numberline {4}Problem 4.a}{4}}
\@writefile{toc}{\contentsline {section}{\numberline {5}Problem 4.b}{4}}
